{
    "Namespace": "SpheroidManager",
    "Body":{
        "name": "BodySpheroidManager",
        "cellIncludes": []
    },
    "Plugin": {
        "className": "PluginSpheroidManager",
        "scenarioIncludes": []
    },
    "cellFunctions": [
        {"code": "inline double getDistanceFromCentroid(){ return this->getBody().getDistanceFromCentroid(); } "},
        {"code": "inline void setDistanceFromCentroid(double d) { this->getBody().setDistanceFromCentroid(d); } "}
    ],
    "cellFunctionTemplate": [],
    "scenarioFunction": [],
    "scenarioAttributes": []
}